…
### Estimating a reference series only
Now that we have covered the data preparation, let's estimate the reference series. This function will also estimate other models by checking the `flag` component of the data list setup by the `data_prep` function. Additional arguments can be provided to `est_model` that control the behavior of the `cmdstanr::sample` call. Run `?cmdstanr::sample` to view the possible arguments. For most reference series, the default `cmdstanr::sample` arguments work fine. You may wish to set `parallel_chains` argument equal to the default number of `chains=4` to achieve parallel processing. Though, estimating reference-series only models is generally extremely fast (< 10 secs on the author's machine).

```r
fit <- est_model(data = df, show_messages = FALSE, show_exceptions = FALSE)
```
The `est_model` function returns a named list with `model` containing the `stan` model code that was sampled from and `fitted` which contains the output from `cmdstanr::sample`. Functions that work on `CmdStanMCMC` objects produced from `cmdstanr::sample` also work on this `fit$fitted` object.

```r
fit$fitted$summary(variables = c('C14_pred'))
#> # A tibble: 81 × 10
#>    variable     mean median    sd   mad    q5   q95  rhat ess_bulk ess_tail
#>    <chr>       <dbl>  <dbl> <dbl> <dbl> <dbl> <dbl> <dbl>    <dbl>    <dbl>
#>  1 C14_pred[1] -52.4  -52.6  5.18  5.17 -61.0 -44.1 1.00     4162.    4055.
#>  2 C14_pred[2] -52.0  -52.1  4.95  5.04 -60.2 -43.9 1.00     4041.    3736.
#>  3 C14_pred[3] -51.1  -51.0  4.92  4.80 -59.2 -43.0 1.00     3990.    3694.
#>  4 C14_pred[4] -50.2  -50.1  4.92  4.91 -58.2 -41.9 0.999    3778.    3718.
#>  5 C14_pred[5] -50.1  -50.1  4.94  4.92 -58.0 -41.7 1.00     3873.    3685.
#>  6 C14_pred[6] -50.8  -50.8  4.99  4.95 -59.1 -42.5 1.00     4062.    3688.
#>  7 C14_pred[7] -51.1  -51.1  5.10  4.99 -59.6 -42.9 1.00     4076.    3794.
#>  8 C14_pred[8] -49.5  -49.5  4.94  4.89 -57.7 -41.4 1.00     3745.    3586.
#>  9 C14_pred[9] -47.8  -47.8  5.03  5.13 -56.0 -39.6 1.00     3866.    3833.
#> 10 C14_pred[1… -46.9  -46.9  5.08  5.08 -55.4 -38.5 1.00     4187.    3873.
#> # ℹ 71 more rows
```
…
